{
  "extensionDescription": {
    "message": "Sube los adjuntos grandes a tu nube y envía el enlace por correo electrónico"
  },
  "extensionName": {
    "message": "*cloud - FileLink para Nextcloud y ownCloud"
  },
  "saveButton": {
    "message": "Guarda"
  },
  "resetButton": {
    "message": "Reinicia"
  },
  "serverUrl": {
    "message": "URL del servidor"
  },
  "serverUrl_details": {
    "message": "La URL base de tu servidor, tiene que empezar por http o https.\nSi tu servidor funciona en un puerto no estándar, añádelo a la URL."
  },
  "username": {
    "message": "Usuario"
  },
  "username_details": {
    "message": "Tu nombre de usuario en tu servidor."
  },
  "password": {
    "message": "Testigo o contraseña"
  },
  "password_details": {
    "message": "Una contraseña de aplicación (preferible) o contraseña.\nSolo en Nextcloud el complemento intenta convertir la contraseña en una contraseña de aplicación antes de almacenarla. Si esto falla, la contraseña se almacenará sin encriptar."
  },
  "storageFolder": {
    "message": "Ubicación en el servidor"
  },
  "storageFolder_details": {
    "message": "Ubicación donde almacenar los adjuntos en el servidor. Si no existe, se creará durante la carga."
  },
  "useNoDlPassword": {
    "message": "Sin contraseña"
  },
  "useNoDlPassword_details": {
    "message": "No requerir contraseña en las descargas"
  },
  "useGeneratedDlPassword": {
    "message": "Usa una contraseña generada"
  },
  "useGeneratedDlPassword_details": {
    "message": "Se genera una contraseña aleatoria para cada descarga. Cópia la de la notificación del estado después de la carga."
  },
  "useDlPassword": {
    "message": "Contraseña para las descargas:"
  },
  "oneDlPassword": {
    "message": "Una contraseña para todas las descargas"
  },
  "useDlPassword_details": {
    "message": "Esta contraseña debe cumplir las reglas que el administrador del servidor ha configurado (ej. Longitud, tipos de carácteres, ...). Si no es así, la carga fallará. Tendrás que comunicar la contraseña a los destinatarios; la necesitarán para la descarga de los adjuntos."
  },
  "expiryDaysBefore": {
    "message": "Expirar la descarga en "
  },
  "expiryDaysAfter": {
    "message": " días"
  },
  "expiry_details": {
    "message": "El número de días que la descarga estará disponible, incluyendo hoy."
  },
  "freespace": {
    "message": "Espacio disponible ($FREE$ de $FULL$)",
    "placeholders": {
      "free": {
        "content": "$1"
      },
      "full": {
        "content": "$2"
      }
    }
  },
  "success": {
    "message": "Correcto"
  },
  "error_0": {
    "message": "Error desconocido ($1)"
  },
  "error_typeerror": {
    "message": "Sin conexión. Comprueba la URL del servidor y la conexión de red."
  },
  "error_404": {
    "message": "El usuario no existe o no encuentro una nube compatible en la URL."
  },
  "warn_unsupported_cloud": {
    "message": "Versión obsoleta de Nextcloud o ownCloud. Puedes perder datos. Contacta con tu administrador para actualizar."
  },
  "obsolete_version": {
    "description": "This is displayed over the icon if the cloud version is not supported, so it should be quite short and contain at most two lines.",
    "message": "Versión\nobsoleta"
  },
  "error_401": {
    "message": "El inicio de sessión falló. Comprueba el usuario y la contraseña."
  },
  "error_503": {
    "message": "El servidor está en modo de mantenimiento. Vuelve a probar más tarde."
  },
  "error_sharing_off": {
    "message": "La compartición de archivos está deshabilitada. Pide a tu administrador que la habilite."
  },
  "error_invalid_pw": {
    "message": "La contraseña de descarga es inválida (la carga fallará). La razón dada por el servidor es: $1"
  },
  "error_password_enforced": {
    "message": "Tu nube necesita una contraseña de descarga."
  },
  "warn_expiry_too_long": {
    "message": "El administrador ha fijado el tiempo de expiración en un máximo de $1 días. El valor se ajustará, para que la carga sea correcta."
  },
  "warn_no_config_check": {
    "message": "Falló la verificación de la cuenta. Comprueba la conexión de red."
  },
  "warn_insecure_http": {
    "message": "Con http: tus datos se envían sin encriptar. Utiliza https: en su lugar. Si no lo tenéis configurado, contactad con vuestro administrador."
  },
  "status_menutooltip": {
    "description": "This is displayed as a tooltip when the mouse pointer hovers over the menu button labelled with 'status_menuname'",
    "message": "Muestra las subidas y las contraseñas generadas para *cloud (si existen)"
  },
  "status_menuname": {
    "description": "This short text is displayed on the menu button that opens the status popup next to the *cloud logo",
    "message": "Estado"
  },
  "status_no_uploads": {
    "message": "Sin cargas activas"
  },
  "status_button_clear": {
    "description": "Button to remove error messages from status popup",
    "message": "Limpia las cargas completadas"
  },
  "status_preparing": {
    "description": "This will be displayed in the status popup. If this step fails this string will be combined with one indicating failure, eg 'Preparing file size failed'.",
    "message": "Preparando"
  },
  "status_creating": {
    "message": "Creando la carpeta"
  },
  "status_moving": {
    "message": "Moviendo el archivo conflictivo"
  },
  "status_uploading": {
    "message": "Cargando"
  },
  "status_sharing": {
    "message": "Compartiendo"
  },
  "status_checkingsize": {
    "message": "Comprobando el tamaño máximo permitido"
  },
  "status_checkingspace": {
    "message": "Comprobando el espacio libre"
  },
  "status_error": {
    "description": "This will be combined with one of the states above, eg 'Preparing failed'. If this doesn't work in your language, please tell me.",
    "message": "Error: $1"
  },
  "status_password": {
    "message": "contraseña: $1"
  },
  "warn_nonascii_password": {
    "message": "La contraseña contiene caracteres que pueden causar problemas. Usa una contraseña de aplicación en su lugar."
  },
  "advanced_options": {
    "message": "Opciones Avanzadas"
  }
}
